8,10
0.221230110648,0.11011199979,0.0831933189123,0.14413403253,0.0701584991187,0.17127195781,0.129748738494,0.0701513426954
0.0770621397655,0.14597687815,0.14815027099,0.190880824262,0.117327883844,0.192019212699,0.0246233494542,0.103959440836,0.189429451496,0.156346572557,0.0364889531553,0.126537363191,0.17330780537,0.0473868435333,0.153851949442,0.116651061255,0.185605362424,0.00558780052311,0.0611447077807,0.121546589269,0.127718558143,0.175797130778,0.185310785733,0.137289065349,0.0359847076704,0.00957948479609,0.32020342274,0.254077368337,0.0433302638263,0.0629076314055,0.181419176811,0.0924979444136,0.0823797082585,0.204162743684,0.192887779265,0.253728447161,0.0193646480708,0.154596015949,0.0203174811888,0.0725631764227,0.0487440880662,0.201518498318,0.128228957718,0.0804416187103,0.131086646714,0.109004398855,0.220083863846,0.0808919277722,0.216972769484,0.097773873727,0.0376355993287,0.0781987466874,0.0314121992302,0.259717774744,0.231809796373,0.0464792404253,0.104439908697,0.0537860636489,0.130736162823,0.16250863621,0.186274709747,0.0382840626057,0.139388489908,0.184581966361
0.10448846862,0.170930760918,0.136841184969,0.00985620833997,0.0399718671232,0.0468722142383,0.210908186523,0.0808142621134,0.00559937802605,0.193717469128,0.0982843336544,0.191521159256,0.0254229203357,0.197359316644,0.0569699903757,0.0667899331269,0.170784341088,0.158431265674,0.000233603236048,0.0342031366091,0.149271928882,0.0590941790828,0.136034022017,0.0550451627009,0.0437179240406,0.191861530546,0.0599427142913,0.149820015243,0.132329257941,0.0228832652549,0.0388810500175,0.162927528248,0.047810503451,0.0512178716424,0.154924799285,0.0912052811656,0.115889651015,0.142270774522,0.104734331885,0.0901382087684,0.0349016031323,0.035657922823,0.0393254259919,0.196854722317,0.0750375808313,0.220797502307,0.0268816759094,0.031155270639,0.252154454888,0.0872338411607,0.0819648493246,0.0700006221184,0.142908024698,0.0945600607762,0.155792487205,0.0753695619596,0.0812894049549,0.114918276704,0.078563931809,0.10463278045,0.144576951493,0.078729358387,0.105696407557,0.237347790974,0.0162682913802,0.161820501133,0.000732526689561,0.16149306228,0.017351868311,0.0759832417945,0.208136044394,0.044360739404,0.000981662268164,0.0488211652822,0.123610548441,0.120380452318,0.103904762723,0.0407171708318,0.126551210769,0.182536243569